[
    {
        "product": "Samsung Galaxy",
        "price": 300,
        "url": "img/image1.jpg",
        "code": 1,
        "color": "blue"
    },

    {
        "product": "Samsung Note",
        "price": 700,
        "url": "img/image2.jpg",
        "code": 2,
        "color": "black"
    },

    {
        "product": "IPhone12",
        "price": 1000,
        "url": "img/image3.jpg",
        "code": 3,
        "color": "white"
    },

    {
        "product": "IPhone10",
        "price": 700,
        "url": "img/image4.jpg",
        "code": 4,
        "color": "grey"
    },

    {
        "product": "Xiaomi Mi",
        "price": 400,
        "url": "img/image5.jpg",
        "code": 5,
        "color": "blue"
    },

    {
        "product": "Xiaomi Redmi",
        "price": 500,
        "url": "img/image6.jpg",
        "code": 6,
        "color": "black"
    },

    {
        "product": "IPhone11",
        "price": 900,
        "url": "img/image7.jpg",
        "code": 7,
        "color": "white"
    },

    {
        "product": "Samsung Note",
        "price": 600,
        "url": "img/image8.jpg",
        "code": 8,
        "color": "grey"
    },

    {
        "product": "Huawei Smart",
        "price": 850,
        "url": "img/image9.jpg",
        "code": 9,
        "color": "green"
    },

    {
        "product": "LG",
        "price": 780,
        "url": "img/image10.jpg",
        "code": 10,
        "color": "green"
    },

    {
        "product": "Huawei",
        "price": 950,
        "url": "img/image11.jpg",
        "code": 11,
        "color": "grey"
    },

    {
        "product": "Nokia",
        "price": 800,
        "url": "img/image12.jpg",
        "code": 12,
        "color": "silver"
    }

]